Data Apothecary’s Notes - Case study: CTN
…
ctn0094extra

library(public.ctn0094data)
library(public.ctn0094extra)

# visit_imp <- public.ctn0094extra::derived_visitImputed
# eth <- public.ctn0094extra::derived_raceEthnicity

#visit_imp
#eth

induct_delay <- public.ctn0094extra::derived_inductDelay
induct_delay

# A tibble: 2,492 × 3
     who treatment            inductDelay
   <int> <fct>                      <dbl>
 1     2 Outpatient BUP + EMM           0
 2     3 Inpatient BUP                 NA
 3     4 Inpatient NR-NTX               0
 4     6 Outpatient BUP + SMM           0
 5     7 Inpatient NR-NTX               1
 6     9 Inpatient NR-NTX              NA
 7    10 Outpatient BUP                 0
 8    11 Methadone                      0
 9    12 Outpatient BUP                 0
10    13 Outpatient BUP                 0
# ℹ 2,482 more rows

Weekly pattern data. Week 1 starts the day after randomisation or signed consent, depending whether patients are randomized or not. Negative time stamps suggest prior randomization (or consent).

pattern_o <- public.ctn0094extra::derived_weeklyOpioidPattern
pattern_o

# A tibble: 3,560 × 8
     who startWeek randWeek1 randWeek2 endWeek Baseline Phase_1          Phase_2
   <int>     <dbl>     <dbl>     <dbl>   <dbl> <chr>    <chr>            <chr>  
 1     1        -4        NA        NA      15 _____    ooooooooooooooo  ""     
 2     2        -5         0        NA      14 ____++   ----oo-o-o-o+o   ""     
 3     3        -6         0        NA      23 _______  o-ooo-ooooooooo… ""     
 4     4        -4         0        NA      24 ____-    ---------------… ""     
 5     5        -4        NA        NA      15 _____    ooooooooooooooo  ""     
 6     6        -6         0        NA      14 ____+_+  -ooooooooooooo   ""     
 7     7        -5         0        NA      24 _____+   ----ooooooooooo… ""     
 8     8        -4        NA        NA      25 _____    ooooooooooooooo… ""     
 9     9        -6         0        NA      22 ____+__  ooooooooooooooo… ""     
10    10        -7         0        NA      22 _____+_- --o--*++o-+++++… ""     
# ℹ 3,550 more rows

pattern_t <- public.ctn0094extra::derived_weeklyTLFBPattern
pattern_t

# A tibble: 3,560 × 8
     who startWeek randWeek1 randWeek2 endWeek Baseline Phase_1          Phase_2
   <int>     <dbl>     <dbl>     <dbl>   <dbl> <chr>    <chr>            <chr>  
 1     1        -4        NA        NA      14 _____    oooooooooooooo   ""     
 2     2        -5         0        NA      14 ++++++   -----------*+-   ""     
 3     3        -6         0        NA      23 ++++*--  ----*----------… ""     
 4     4        -4         0        NA      24 +++--    -------------*-… ""     
 5     5        -4        NA        NA      14 _____    oooooooooooooo   ""     
 6     6        -6         0        NA      14 +++++++  --------------   ""     
 7     7        -5         0        NA      24 _+++--   ---------------… ""     
 8     8        -4        NA        NA      24 _____    ooooooooooooooo… ""     
 9     9        -6         0        NA      22 +++**--  ---------------… ""     
10    10        -7         0        NA      22 --*+++++ ---------++-+-*… ""     
# ℹ 3,550 more rows
…
