Data Apothecary’s Notes - OOP in R: S3
…
sloop::s3_methods_class('lm')

# A tibble: 35 × 4
   generic        class visible source             
   <chr>          <chr> <lgl>   <chr>              
 1 add1           lm    FALSE   registered S3method
 2 alias          lm    FALSE   registered S3method
 3 anova          lm    FALSE   registered S3method
 4 case.names     lm    FALSE   registered S3method
 5 confint        lm    TRUE    stats              
 6 cooks.distance lm    FALSE   registered S3method
 7 deviance       lm    FALSE   registered S3method
 8 dfbeta         lm    FALSE   registered S3method
 9 dfbetas        lm    FALSE   registered S3method
10 drop1          lm    FALSE   registered S3method
# ℹ 25 more rows
…
